{
  "file_generated_by": "FlutterFire CLI",
  "purpose": "FirebaseAppID & ProjectID for this Firebase app in this directory",
  "GOOGLE_APP_ID": "1:868743758488:ios:9c7dc8128a32dd8b9c06ed",
  "FIREBASE_PROJECT_ID": "backend-workapp",
  "GCM_SENDER_ID": "868743758488"
}